[
  {  "version": "171",  "milestone": "17.1 RC1",  "releaseDate": "20170123",  "build": "R20170113-190225"},
  {  "version": "171",  "milestone": "17.1 RC2",  "releaseDate": "20170206",  "build": "R20170127-051347"}
]
